\boolfalse {citerequest}\boolfalse {citetracker}\boolfalse {pagetracker}\boolfalse {backtracker}\relax 
\defcounter {refsection}{0}\relax 
\beamer@endinputifotherversion {3.36pt}
\defcounter {refsection}{0}\relax 
\beamer@sectionintoc {1}{Introduction}{4}{0}{1}
\defcounter {refsection}{0}\relax 
\beamer@sectionintoc {2}{Introduction}{5}{0}{2}
\defcounter {refsection}{0}\relax 
\beamer@sectionintoc {3}{Material}{14}{0}{3}
\defcounter {refsection}{0}\relax 
\beamer@sectionintoc {4}{Methods}{19}{0}{4}
\defcounter {refsection}{0}\relax 
\beamer@sectionintoc {5}{Results}{21}{0}{5}
\defcounter {refsection}{0}\relax 
\beamer@sectionintoc {6}{Discussion}{25}{0}{6}
